<svg width="374" height="146" viewBox="0 0 374 146" fill="none" xmlns="http://www.w3.org/2000/svg">
<mask id="mask0_4013_101308" style="mask-type:alpha" maskUnits="userSpaceOnUse" x="0" y="0" width="374" height="146">
<rect width="374" height="146" fill="#D9D9D9"/>
</mask>
<g mask="url(#mask0_4013_101308)">
<path d="M153.667 61.3333H120.333C115.913 61.3333 111.674 63.0893 108.548 66.2149C105.423 69.3405 103.667 73.5797 103.667 78V161.333C103.667 165.754 105.423 169.993 108.548 173.118C111.674 176.244 115.913 178 120.333 178H253.667C258.087 178 262.326 176.244 265.452 173.118C268.577 169.993 270.333 165.754 270.333 161.333V78C270.333 73.5797 268.577 69.3405 265.452 66.2149C262.326 63.0893 258.087 61.3333 253.667 61.3333H220.333M153.667 61.3333V33C153.667 31.6739 154.193 30.4021 155.131 29.4645C156.069 28.5268 157.341 28 158.667 28H215.333C216.659 28 217.931 28.5268 218.869 29.4645C219.807 30.4021 220.333 31.6739 220.333 33V61.3333M153.667 61.3333H220.333" stroke="#E3CDD6" stroke-width="12"/>
</g>
</svg>
