<svg width="48" height="48" viewBox="0 0 48 48" fill="none" xmlns="http://www.w3.org/2000/svg">
<rect width="48" height="48" fill="#D1ACBB"/>
<path d="M24 23H26.5H29" stroke="#180C2E" stroke-width="1.5" stroke-linecap="round" stroke-linejoin="round"/>
<path d="M24 19H26.5H29" stroke="#180C2E" stroke-width="1.5" stroke-linecap="round" stroke-linejoin="round"/>
<path d="M20 27V15.6C20 15.2686 20.2686 15 20.6 15H32.4C32.7314 15 33 15.2686 33 15.6V29C33 31.2091 31.2091 33 29 33" stroke="#180C2E" stroke-width="1.5" stroke-linecap="round" stroke-linejoin="round"/>
<path d="M17 27H20H24.4C24.7314 27 25.0031 27.2668 25.0298 27.5971C25.1526 29.1147 25.7812 33 29 33H20H18C16.3432 33 15 31.6569 15 30V29C15 27.8954 15.8954 27 17 27Z" stroke="#180C2E" stroke-width="1.5" stroke-linecap="round" stroke-linejoin="round"/>
</svg>
