<svg width="373" height="212" viewBox="0 0 373 212" fill="none" xmlns="http://www.w3.org/2000/svg">
<rect x="373" y="45" width="1.00001" height="373" transform="rotate(90 373 45)" fill="#EDE4CD"/>
<rect x="163" y="94" width="1.00001" height="48" transform="rotate(-180 163 94)" fill="#EDE4CD"/>
<rect x="115" y="94" width="1.00001" height="48" transform="rotate(-180 115 94)" fill="#EDE4CD"/>
<rect x="67" y="94" width="1.00001" height="48" transform="rotate(-180 67 94)" fill="#EDE4CD"/>
<rect x="18" y="94" width="1.00001" height="48" transform="rotate(-180 18 94)" fill="#EDE4CD"/>
<rect x="212" y="94" width="1.00001" height="48" transform="rotate(-180 212 94)" fill="#EDE4CD"/>
<rect x="261" y="94" width="1.00001" height="48" transform="rotate(-180 261 94)" fill="#EDE4CD"/>
<rect x="310" y="94" width="1.00001" height="48" transform="rotate(-180 310 94)" fill="#EDE4CD"/>
<rect x="359" y="94" width="1.00001" height="48" transform="rotate(-180 359 94)" fill="#EDE4CD"/>
<rect x="373" y="94" width="1.00001" height="373" transform="rotate(90 373 94)" fill="#EDE4CD"/>
<rect x="163" y="46" width="48" height="48" fill="#E0CFA8"/>
<g clip-path="url(#clip0_4254_113264)">
<path d="M181.166 62.9173H192.832M179.917 64.1657V75.8332M194.082 64.1665V75.8348M181.166 77.084H192.832M181.165 61.6665H178.667V64.1648H181.165V61.6665ZM181.165 75.8332H178.667V78.3315H181.165V75.8332ZM195.331 61.6682H192.833V64.1665H195.332V61.6682H195.331ZM195.331 75.8348H192.833V78.3332H195.332V75.8348H195.331Z" stroke="#180C2E" stroke-width="1.5" stroke-miterlimit="1.5" stroke-linecap="round" stroke-linejoin="round"/>
<path d="M186.164 72.5018L183.664 66.6685L189.498 69.1685L186.999 70.001L186.164 72.5018V72.5018Z" stroke="#180C2E" stroke-width="1.5" stroke-miterlimit="1.5" stroke-linecap="round" stroke-linejoin="round"/>
<path d="M186.999 70.0015L189.497 72.5015L186.999 70.0015V70.0015Z" stroke="#180C2E" stroke-width="1.5" stroke-miterlimit="1.5" stroke-linecap="round" stroke-linejoin="round"/>
</g>
<defs>
<clipPath id="clip0_4254_113264">
<rect width="20" height="20" fill="white" transform="translate(177 60)"/>
</clipPath>
</defs>
</svg>
