<svg width="579" height="368" viewBox="0 0 579 368" fill="none" xmlns="http://www.w3.org/2000/svg">
<rect x="172" y="118" width="68" height="68" fill="#D5E7BA"/>
<rect x="310" y="48" width="67" height="70" fill="#E2E2BA"/>
<rect x="448" y="255" width="69" height="69" fill="#C1DCE0"/>
<rect x="377" y="187" width="69" height="68" fill="#DABCC8"/>
<rect x="103" y="256" width="67" height="67" fill="#FAD6B0"/>
<mask id="mask0_2172_73083" style="mask-type:alpha" maskUnits="userSpaceOnUse" x="49" y="0" width="530" height="368">
<rect x="579" width="368" height="530" rx="6" transform="rotate(90 579 0)" fill="#E0F0EE"/>
</mask>
<g mask="url(#mask0_2172_73083)">
<rect x="240.11" y="873.796" width="549.872" height="2.19781" transform="rotate(-90 240.11 873.796)" fill="#EDE4CD"/>
<rect x="309.212" y="873.796" width="549.872" height="2.19781" transform="rotate(-90 309.212 873.796)" fill="#EDE4CD"/>
<rect x="378.313" y="873.796" width="549.872" height="2.19781" transform="rotate(-90 378.313 873.796)" fill="#EDE4CD"/>
<rect x="447.415" y="873.796" width="549.872" height="2.19781" transform="rotate(-90 447.415 873.796)" fill="#EDE4CD"/>
<rect x="516.552" y="873.796" width="549.872" height="2.19781" transform="rotate(-90 516.552 873.796)" fill="#EDE4CD"/>
<rect x="240.11" y="322.949" width="553.849" height="2.18587" fill="#EDE4CD"/>
<rect x="307.549" y="323.527" width="549.872" height="2.20529" transform="rotate(-90 307.549 323.527)" fill="#EDE4CD"/>
<rect x="376.893" y="323.527" width="549.872" height="2.20529" transform="rotate(-90 376.893 323.527)" fill="#EDE4CD"/>
<rect x="446.22" y="323.519" width="549.872" height="2.20529" transform="rotate(-90 446.22 323.519)" fill="#EDE4CD"/>
<rect x="515.582" y="323.519" width="549.872" height="2.20529" transform="rotate(-90 515.582 323.519)" fill="#EDE4CD"/>
<rect x="238.176" y="47.6035" width="555.734" height="2.18587" fill="#EDE4CD"/>
<rect x="238.176" y="116.345" width="555.734" height="2.18587" fill="#EDE4CD"/>
<rect x="238.176" y="185.082" width="555.734" height="2.18587" fill="#EDE4CD"/>
<rect x="238.176" y="253.81" width="555.734" height="2.18587" fill="#EDE4CD"/>
<path d="M238.176 322.803L795.137 322.804L795.137 324.198L238.176 324.198L238.176 322.803Z" fill="#EDE4CD"/>
<rect x="101.011" y="873.796" width="549.872" height="2.19781" transform="rotate(-90 101.011 873.796)" fill="#EDE4CD"/>
<rect x="170.122" y="873.792" width="549.872" height="2.19781" transform="rotate(-90 170.122 873.792)" fill="#EDE4CD"/>
<rect x="239.223" y="873.796" width="549.872" height="2.19781" transform="rotate(-90 239.223 873.796)" fill="#EDE4CD"/>
<rect x="-313.643" y="322.949" width="553.849" height="2.18587" fill="#EDE4CD"/>
<rect x="101.011" y="323.502" width="549.872" height="2.19781" transform="rotate(-90 101.011 323.502)" fill="#EDE4CD"/>
<rect x="170.122" y="323.493" width="549.872" height="2.19781" transform="rotate(-90 170.122 323.493)" fill="#EDE4CD"/>
<rect x="238.8" y="324.164" width="550.836" height="2.80428" transform="rotate(-90 238.8 324.164)" fill="#EDE4CD"/>
<rect x="-313.643" y="47.5718" width="553.849" height="2.18587" fill="#EDE4CD"/>
<rect x="-313.643" y="116.313" width="553.849" height="2.18587" fill="#EDE4CD"/>
<rect x="-313.643" y="185.05" width="553.849" height="2.18587" fill="#EDE4CD"/>
<rect x="-313.643" y="253.778" width="553.849" height="2.18587" fill="#EDE4CD"/>
<path d="M-313.643 322.771L241.428 322.772L241.428 324.166L-313.643 324.166L-313.643 322.771Z" fill="#EDE4CD"/>
</g>
<path d="M242 119.005L377.291 119.004L376.791 254.004L241.5 254.004L242 119.005Z" fill="white"/>
<path d="M125.333 299.333V298.167C125.333 296.001 126.194 293.924 127.725 292.392C129.257 290.86 131.334 290 133.5 290V290" stroke="#180C2E" stroke-width="2" stroke-linecap="round" stroke-linejoin="round"/>
<path d="M141.438 290.365C141.615 290.171 141.83 290.016 142.071 289.91C142.311 289.804 142.571 289.749 142.833 289.749C143.096 289.749 143.356 289.804 143.596 289.91C143.836 290.016 144.052 290.171 144.229 290.365V290.365C144.608 290.782 145.15 291.007 145.713 290.98C145.975 290.968 146.237 291.011 146.482 291.105C146.727 291.2 146.95 291.345 147.136 291.531C147.322 291.717 147.467 291.939 147.561 292.184C147.656 292.43 147.699 292.692 147.687 292.954V292.954C147.66 293.515 147.885 294.059 148.3 294.438C149.123 295.187 149.123 296.48 148.3 297.229C147.885 297.608 147.66 298.151 147.687 298.713C147.699 298.975 147.656 299.238 147.561 299.483C147.467 299.728 147.322 299.95 147.136 300.136C146.95 300.322 146.727 300.467 146.482 300.562C146.237 300.657 145.975 300.699 145.713 300.687V300.687C145.435 300.674 145.159 300.722 144.902 300.828C144.646 300.934 144.416 301.095 144.229 301.301C144.052 301.495 143.836 301.65 143.596 301.756C143.356 301.862 143.096 301.917 142.833 301.917C142.571 301.917 142.311 301.862 142.071 301.756C141.83 301.65 141.615 301.495 141.438 301.301V301.301C141.251 301.095 141.021 300.934 140.764 300.828C140.508 300.722 140.231 300.674 139.954 300.687V300.687C139.691 300.699 139.429 300.657 139.184 300.562C138.939 300.467 138.717 300.322 138.531 300.136C138.345 299.95 138.2 299.728 138.105 299.483C138.01 299.238 137.968 298.975 137.98 298.713V298.713C137.993 298.435 137.945 298.159 137.838 297.902C137.732 297.646 137.57 297.416 137.365 297.229V297.229C137.171 297.052 137.016 296.836 136.91 296.596C136.804 296.356 136.749 296.096 136.749 295.834C136.749 295.571 136.804 295.311 136.91 295.071C137.016 294.831 137.171 294.615 137.365 294.438V294.438C137.782 294.059 138.007 293.517 137.98 292.954C137.968 292.692 138.01 292.43 138.105 292.184C138.2 291.939 138.345 291.717 138.531 291.531C138.717 291.345 138.939 291.2 139.184 291.105C139.429 291.011 139.691 290.968 139.954 290.98V290.98C140.515 291.007 141.059 290.782 141.438 290.365V290.365Z" stroke="#180C2E" stroke-width="2"/>
<path d="M140.925 295.833L142.196 297.105L144.742 294.562M133.5 290C134.738 290 135.925 289.508 136.8 288.633C137.675 287.758 138.167 286.571 138.167 285.333C138.167 284.095 137.675 282.909 136.8 282.033C135.925 281.158 134.738 280.667 133.5 280.667C132.262 280.667 131.075 281.158 130.2 282.033C129.325 282.909 128.833 284.095 128.833 285.333C128.833 286.571 129.325 287.758 130.2 288.633C131.075 289.508 132.262 290 133.5 290V290Z" stroke="#180C2E" stroke-width="2" stroke-linecap="round" stroke-linejoin="round"/>
<path d="M194.333 161.333V160.167C194.333 158.001 195.194 155.924 196.725 154.392C198.257 152.86 200.334 152 202.5 152V152" stroke="#180C2E" stroke-width="2" stroke-linecap="round" stroke-linejoin="round"/>
<path d="M210.438 152.365C210.615 152.171 210.83 152.016 211.071 151.91C211.311 151.804 211.571 151.749 211.833 151.749C212.096 151.749 212.356 151.804 212.596 151.91C212.836 152.016 213.052 152.171 213.229 152.365V152.365C213.608 152.782 214.15 153.007 214.713 152.98C214.975 152.968 215.237 153.011 215.482 153.105C215.727 153.2 215.95 153.345 216.136 153.531C216.322 153.717 216.467 153.939 216.561 154.184C216.656 154.43 216.699 154.692 216.687 154.954V154.954C216.66 155.515 216.885 156.059 217.3 156.438C218.123 157.187 218.123 158.48 217.3 159.229C216.885 159.608 216.66 160.151 216.687 160.713C216.699 160.975 216.656 161.238 216.561 161.483C216.467 161.728 216.322 161.95 216.136 162.136C215.95 162.322 215.727 162.467 215.482 162.562C215.237 162.657 214.975 162.699 214.713 162.687V162.687C214.435 162.674 214.159 162.722 213.902 162.828C213.646 162.934 213.416 163.095 213.229 163.301C213.052 163.495 212.836 163.65 212.596 163.756C212.356 163.862 212.096 163.917 211.833 163.917C211.571 163.917 211.311 163.862 211.071 163.756C210.83 163.65 210.615 163.495 210.438 163.301V163.301C210.251 163.095 210.021 162.934 209.764 162.828C209.508 162.722 209.231 162.674 208.954 162.687V162.687C208.691 162.699 208.429 162.657 208.184 162.562C207.939 162.467 207.717 162.322 207.531 162.136C207.345 161.95 207.2 161.728 207.105 161.483C207.01 161.238 206.968 160.975 206.98 160.713V160.713C206.993 160.435 206.945 160.159 206.838 159.902C206.732 159.646 206.57 159.416 206.365 159.229V159.229C206.171 159.052 206.016 158.836 205.91 158.596C205.804 158.356 205.749 158.096 205.749 157.834C205.749 157.571 205.804 157.311 205.91 157.071C206.016 156.831 206.171 156.615 206.365 156.438V156.438C206.782 156.059 207.007 155.517 206.98 154.954C206.968 154.692 207.01 154.43 207.105 154.184C207.2 153.939 207.345 153.717 207.531 153.531C207.717 153.345 207.939 153.2 208.184 153.105C208.429 153.011 208.691 152.968 208.954 152.98V152.98C209.515 153.007 210.059 152.782 210.438 152.365V152.365Z" stroke="#180C2E" stroke-width="2"/>
<path d="M209.925 157.833L211.196 159.105L213.742 156.562M202.5 152C203.738 152 204.925 151.508 205.8 150.633C206.675 149.758 207.167 148.571 207.167 147.333C207.167 146.095 206.675 144.909 205.8 144.033C204.925 143.158 203.738 142.667 202.5 142.667C201.262 142.667 200.075 143.158 199.2 144.033C198.325 144.909 197.833 146.095 197.833 147.333C197.833 148.571 198.325 149.758 199.2 150.633C200.075 151.508 201.262 152 202.5 152V152Z" stroke="#180C2E" stroke-width="2" stroke-linecap="round" stroke-linejoin="round"/>
<path d="M332.333 92.3333V91.1667C332.333 89.0007 333.194 86.9235 334.725 85.392C336.257 83.8604 338.334 83 340.5 83V83" stroke="#180C2E" stroke-width="2" stroke-linecap="round" stroke-linejoin="round"/>
<path d="M348.438 83.3653C348.615 83.1712 348.83 83.0161 349.071 82.91C349.311 82.8038 349.571 82.749 349.833 82.749C350.096 82.749 350.356 82.8038 350.596 82.91C350.836 83.0161 351.052 83.1712 351.229 83.3653V83.3653C351.608 83.7818 352.15 84.007 352.713 83.9802C352.975 83.9679 353.237 84.0105 353.482 84.1054C353.727 84.2002 353.95 84.3452 354.136 84.531C354.322 84.7168 354.467 84.9394 354.561 85.1844C354.656 85.4295 354.699 85.6917 354.687 85.9542V85.9542C354.66 86.5153 354.885 87.059 355.3 87.4382C356.123 88.1872 356.123 89.4798 355.3 90.2288C354.885 90.608 354.66 91.1505 354.687 91.7128C354.699 91.9753 354.656 92.2375 354.561 92.4826C354.467 92.7276 354.322 92.9502 354.136 93.136C353.95 93.3218 353.727 93.4668 353.482 93.5617C353.237 93.6565 352.975 93.6991 352.713 93.6868V93.6868C352.435 93.6737 352.159 93.7219 351.902 93.828C351.646 93.9341 351.416 94.0954 351.229 94.3005C351.052 94.4947 350.836 94.6498 350.596 94.7559C350.356 94.862 350.096 94.9168 349.833 94.9168C349.571 94.9168 349.311 94.862 349.071 94.7559C348.83 94.6498 348.615 94.4947 348.438 94.3005V94.3005C348.251 94.0954 348.021 93.9341 347.764 93.828C347.508 93.7219 347.231 93.6737 346.954 93.6868V93.6868C346.691 93.6991 346.429 93.6565 346.184 93.5617C345.939 93.4668 345.717 93.3218 345.531 93.136C345.345 92.9502 345.2 92.7276 345.105 92.4826C345.01 92.2375 344.968 91.9753 344.98 91.7128V91.7128C344.993 91.4355 344.945 91.1587 344.838 90.9022C344.732 90.6457 344.57 90.4158 344.365 90.2288V90.2288C344.171 90.0519 344.016 89.8365 343.91 89.5962C343.804 89.3559 343.749 89.0962 343.749 88.8335C343.749 88.5708 343.804 88.3111 343.91 88.0708C344.016 87.8305 344.171 87.6151 344.365 87.4382V87.4382C344.782 87.059 345.007 86.5165 344.98 85.9542C344.968 85.6917 345.01 85.4295 345.105 85.1844C345.2 84.9394 345.345 84.7168 345.531 84.531C345.717 84.3452 345.939 84.2002 346.184 84.1054C346.429 84.0105 346.691 83.9679 346.954 83.9802V83.9802C347.515 84.007 348.059 83.7818 348.438 83.3653V83.3653Z" stroke="#180C2E" stroke-width="2"/>
<path d="M347.925 88.8332L349.196 90.1048L351.742 87.5615M340.5 82.9998C341.738 82.9998 342.925 82.5082 343.8 81.633C344.675 80.7578 345.167 79.5708 345.167 78.3332C345.167 77.0955 344.675 75.9085 343.8 75.0333C342.925 74.1582 341.738 73.6665 340.5 73.6665C339.262 73.6665 338.075 74.1582 337.2 75.0333C336.325 75.9085 335.833 77.0955 335.833 78.3332C335.833 79.5708 336.325 80.7578 337.2 81.633C338.075 82.5082 339.262 82.9998 340.5 82.9998V82.9998Z" stroke="#180C2E" stroke-width="2" stroke-linecap="round" stroke-linejoin="round"/>
<path d="M401.333 230.333V229.167C401.333 227.001 402.194 224.924 403.725 223.392C405.257 221.86 407.334 221 409.5 221V221" stroke="#180C2E" stroke-width="2" stroke-linecap="round" stroke-linejoin="round"/>
<path d="M417.438 221.365C417.615 221.171 417.83 221.016 418.071 220.91C418.311 220.804 418.571 220.749 418.833 220.749C419.096 220.749 419.356 220.804 419.596 220.91C419.836 221.016 420.052 221.171 420.229 221.365V221.365C420.608 221.782 421.15 222.007 421.713 221.98C421.975 221.968 422.237 222.011 422.482 222.105C422.727 222.2 422.95 222.345 423.136 222.531C423.322 222.717 423.467 222.939 423.561 223.184C423.656 223.43 423.699 223.692 423.687 223.954V223.954C423.66 224.515 423.885 225.059 424.3 225.438C425.123 226.187 425.123 227.48 424.3 228.229C423.885 228.608 423.66 229.151 423.687 229.713C423.699 229.975 423.656 230.238 423.561 230.483C423.467 230.728 423.322 230.95 423.136 231.136C422.95 231.322 422.727 231.467 422.482 231.562C422.237 231.657 421.975 231.699 421.713 231.687V231.687C421.435 231.674 421.159 231.722 420.902 231.828C420.646 231.934 420.416 232.095 420.229 232.301C420.052 232.495 419.836 232.65 419.596 232.756C419.356 232.862 419.096 232.917 418.833 232.917C418.571 232.917 418.311 232.862 418.071 232.756C417.83 232.65 417.615 232.495 417.438 232.301V232.301C417.251 232.095 417.021 231.934 416.764 231.828C416.508 231.722 416.231 231.674 415.954 231.687V231.687C415.691 231.699 415.429 231.657 415.184 231.562C414.939 231.467 414.717 231.322 414.531 231.136C414.345 230.95 414.2 230.728 414.105 230.483C414.01 230.238 413.968 229.975 413.98 229.713V229.713C413.993 229.435 413.945 229.159 413.838 228.902C413.732 228.646 413.57 228.416 413.365 228.229V228.229C413.171 228.052 413.016 227.836 412.91 227.596C412.804 227.356 412.749 227.096 412.749 226.834C412.749 226.571 412.804 226.311 412.91 226.071C413.016 225.831 413.171 225.615 413.365 225.438V225.438C413.782 225.059 414.007 224.517 413.98 223.954C413.968 223.692 414.01 223.43 414.105 223.184C414.2 222.939 414.345 222.717 414.531 222.531C414.717 222.345 414.939 222.2 415.184 222.105C415.429 222.011 415.691 221.968 415.954 221.98V221.98C416.515 222.007 417.059 221.782 417.438 221.365V221.365Z" stroke="#180C2E" stroke-width="2"/>
<path d="M416.925 226.833L418.196 228.105L420.742 225.562M409.5 221C410.738 221 411.925 220.508 412.8 219.633C413.675 218.758 414.167 217.571 414.167 216.333C414.167 215.095 413.675 213.909 412.8 213.033C411.925 212.158 410.738 211.667 409.5 211.667C408.262 211.667 407.075 212.158 406.2 213.033C405.325 213.909 404.833 215.095 404.833 216.333C404.833 217.571 405.325 218.758 406.2 219.633C407.075 220.508 408.262 221 409.5 221V221Z" stroke="#180C2E" stroke-width="2" stroke-linecap="round" stroke-linejoin="round"/>
<path d="M471.333 299.333V298.167C471.333 296.001 472.194 293.924 473.725 292.392C475.257 290.86 477.334 290 479.5 290V290" stroke="#180C2E" stroke-width="2" stroke-linecap="round" stroke-linejoin="round"/>
<path d="M487.438 290.365C487.615 290.171 487.83 290.016 488.071 289.91C488.311 289.804 488.571 289.749 488.833 289.749C489.096 289.749 489.356 289.804 489.596 289.91C489.836 290.016 490.052 290.171 490.229 290.365V290.365C490.608 290.782 491.15 291.007 491.713 290.98C491.975 290.968 492.237 291.011 492.482 291.105C492.727 291.2 492.95 291.345 493.136 291.531C493.322 291.717 493.467 291.939 493.561 292.184C493.656 292.43 493.699 292.692 493.687 292.954V292.954C493.66 293.515 493.885 294.059 494.3 294.438C495.123 295.187 495.123 296.48 494.3 297.229C493.885 297.608 493.66 298.151 493.687 298.713C493.699 298.975 493.656 299.238 493.561 299.483C493.467 299.728 493.322 299.95 493.136 300.136C492.95 300.322 492.727 300.467 492.482 300.562C492.237 300.657 491.975 300.699 491.713 300.687V300.687C491.435 300.674 491.159 300.722 490.902 300.828C490.646 300.934 490.416 301.095 490.229 301.301C490.052 301.495 489.836 301.65 489.596 301.756C489.356 301.862 489.096 301.917 488.833 301.917C488.571 301.917 488.311 301.862 488.071 301.756C487.83 301.65 487.615 301.495 487.438 301.301V301.301C487.251 301.095 487.021 300.934 486.764 300.828C486.508 300.722 486.231 300.674 485.954 300.687V300.687C485.691 300.699 485.429 300.657 485.184 300.562C484.939 300.467 484.717 300.322 484.531 300.136C484.345 299.95 484.2 299.728 484.105 299.483C484.01 299.238 483.968 298.975 483.98 298.713V298.713C483.993 298.435 483.945 298.159 483.838 297.902C483.732 297.646 483.57 297.416 483.365 297.229V297.229C483.171 297.052 483.016 296.836 482.91 296.596C482.804 296.356 482.749 296.096 482.749 295.834C482.749 295.571 482.804 295.311 482.91 295.071C483.016 294.831 483.171 294.615 483.365 294.438V294.438C483.782 294.059 484.007 293.517 483.98 292.954C483.968 292.692 484.01 292.43 484.105 292.184C484.2 291.939 484.345 291.717 484.531 291.531C484.717 291.345 484.939 291.2 485.184 291.105C485.429 291.011 485.691 290.968 485.954 290.98V290.98C486.515 291.007 487.059 290.782 487.438 290.365V290.365Z" stroke="#180C2E" stroke-width="2"/>
<path d="M486.925 295.833L488.196 297.105L490.742 294.562M479.5 290C480.738 290 481.925 289.508 482.8 288.633C483.675 287.758 484.167 286.571 484.167 285.333C484.167 284.095 483.675 282.909 482.8 282.033C481.925 281.158 480.738 280.667 479.5 280.667C478.262 280.667 477.075 281.158 476.2 282.033C475.325 282.909 474.833 284.095 474.833 285.333C474.833 286.571 475.325 287.758 476.2 288.633C477.075 289.508 478.262 290 479.5 290V290Z" stroke="#180C2E" stroke-width="2" stroke-linecap="round" stroke-linejoin="round"/>
<g filter="url(#filter0_d_2172_73083)">
<path d="M272 149H346V223H272V149Z" fill="#4D61FC"/>
<path fill-rule="evenodd" clip-rule="evenodd" d="M310.675 176.327C310.675 177.286 309.897 178.064 308.937 178.064C307.978 178.064 307.2 177.286 307.2 176.327C307.2 175.367 307.978 174.589 308.937 174.589C309.897 174.589 310.675 175.367 310.675 176.327ZM309.605 180.444C309.388 180.479 309.165 180.497 308.937 180.497C308.738 180.497 308.543 180.483 308.351 180.456L304.538 187.971C305.869 187.268 307.387 186.869 308.997 186.869C310.59 186.869 312.092 187.259 313.413 187.949L309.605 180.444ZM315.37 193.238C314.824 193.943 314.499 194.828 314.499 195.789C314.499 198.092 316.366 199.96 318.67 199.96C320.973 199.96 322.84 198.092 322.84 195.789C322.84 193.486 320.973 191.619 318.67 191.619C318.452 191.619 318.237 191.635 318.028 191.668L311.789 179.37C312.601 178.609 313.108 177.527 313.108 176.327C313.108 174.023 311.241 172.156 308.937 172.156C306.634 172.156 304.767 174.023 304.767 176.327C304.767 177.557 305.299 178.662 306.146 179.425L299.937 191.663C299.736 191.634 299.531 191.619 299.323 191.619C297.02 191.619 295.152 193.486 295.152 195.789C295.152 198.092 297.02 199.96 299.323 199.96C301.626 199.96 303.493 198.092 303.493 195.789C303.493 194.829 303.169 193.944 302.623 193.239C303.793 190.905 306.208 189.302 308.997 189.302C311.786 189.302 314.2 190.904 315.37 193.238ZM299.323 197.527C300.283 197.527 301.061 196.749 301.061 195.789C301.061 194.829 300.283 194.051 299.323 194.051C298.363 194.051 297.585 194.829 297.585 195.789C297.585 196.749 298.363 197.527 299.323 197.527ZM320.407 195.789C320.407 196.749 319.629 197.527 318.67 197.527C317.71 197.527 316.932 196.749 316.932 195.789C316.932 194.829 317.71 194.051 318.67 194.051C319.629 194.051 320.407 194.829 320.407 195.789Z" fill="white"/>
</g>
<path fill-rule="evenodd" clip-rule="evenodd" d="M265.016 143.016H265.51C266.343 143.016 267.018 142.341 267.018 141.508C267.018 140.675 266.343 140 265.51 140H264.011C262.9 140 262 140.9 262 142.011V143.51C262 144.343 262.675 145.018 263.508 145.018C264.341 145.018 265.016 144.343 265.016 143.51V143.016ZM270.001 141.508C270.001 140.675 270.676 140 271.509 140H280.507C281.34 140 282.015 140.675 282.015 141.508C282.015 142.341 281.34 143.016 280.507 143.016H271.509C270.676 143.016 270.001 142.341 270.001 141.508ZM290.996 141.508C290.996 140.675 291.671 140 292.504 140H295.503C296.336 140 297.011 140.675 297.011 141.508C297.011 142.341 296.336 143.016 295.503 143.016H292.504C291.671 143.016 290.996 142.341 290.996 141.508ZM299.994 141.508C299.994 140.675 300.669 140 301.502 140H310.5C311.333 140 312.008 140.675 312.008 141.508C312.008 142.341 311.333 143.016 310.5 143.016H301.502C300.669 143.016 299.994 142.341 299.994 141.508ZM320.989 141.508C320.989 140.675 321.664 140 322.497 140H325.496C326.329 140 327.004 140.675 327.004 141.508C327.004 142.341 326.329 143.016 325.496 143.016H322.497C321.664 143.016 320.989 142.341 320.989 141.508ZM329.987 141.508C329.987 140.675 330.662 140 331.495 140H340.493C341.325 140 342.001 140.675 342.001 141.508C342.001 142.341 341.325 143.016 340.493 143.016H331.495C330.662 143.016 329.987 142.341 329.987 141.508ZM350.982 141.508C350.982 140.675 351.657 140 352.49 140H353.989C355.1 140 356 140.9 356 142.011V143.51C356 144.343 355.325 145.018 354.492 145.018C353.659 145.018 352.984 144.343 352.984 143.51V143.016H352.49C351.657 143.016 350.982 142.341 350.982 141.508ZM354.492 148.001C355.325 148.001 356 148.676 356 149.509V158.507C356 159.34 355.325 160.015 354.492 160.015C353.659 160.015 352.984 159.34 352.984 158.507V149.509C352.984 148.676 353.659 148.001 354.492 148.001ZM263.508 153.999C264.341 153.999 265.016 154.675 265.016 155.507V164.505C265.016 165.338 264.341 166.013 263.508 166.013C262.675 166.013 262 165.338 262 164.505V155.507C262 154.675 262.675 153.999 263.508 153.999ZM263.508 168.996C264.341 168.996 265.016 169.671 265.016 170.504V173.503C265.016 174.336 264.341 175.011 263.508 175.011C262.675 175.011 262 174.336 262 173.503V170.504C262 169.671 262.675 168.996 263.508 168.996ZM354.492 168.996C355.325 168.996 356 169.671 356 170.504V173.503C356 174.336 355.325 175.011 354.492 175.011C353.659 175.011 352.984 174.336 352.984 173.503V170.504C352.984 169.671 353.659 168.996 354.492 168.996ZM354.492 177.994C355.325 177.994 356 178.669 356 179.502V188.5C356 189.333 355.325 190.008 354.492 190.008C353.659 190.008 352.984 189.333 352.984 188.5V179.502C352.984 178.669 353.659 177.994 354.492 177.994ZM263.508 183.992C264.341 183.992 265.016 184.667 265.016 185.5V194.498C265.016 195.331 264.341 196.006 263.508 196.006C262.675 196.006 262 195.331 262 194.498V185.5C262 184.667 262.675 183.992 263.508 183.992ZM263.508 198.989C264.341 198.989 265.016 199.664 265.016 200.497V203.496C265.016 204.329 264.341 205.004 263.508 205.004C262.675 205.004 262 204.329 262 203.496V200.497C262 199.664 262.675 198.989 263.508 198.989ZM354.492 198.989C355.325 198.989 356 199.664 356 200.497V203.496C356 204.329 355.325 205.004 354.492 205.004C353.659 205.004 352.984 204.329 352.984 203.496V200.497C352.984 199.664 353.659 198.989 354.492 198.989ZM354.492 207.987C355.325 207.987 356 208.662 356 209.495V218.493C356 219.325 355.325 220.001 354.492 220.001C353.659 220.001 352.984 219.325 352.984 218.493V209.495C352.984 208.662 353.659 207.987 354.492 207.987ZM263.508 213.985C264.341 213.985 265.016 214.66 265.016 215.493V224.491C265.016 225.324 264.341 225.999 263.508 225.999C262.675 225.999 262 225.324 262 224.491V215.493C262 214.66 262.675 213.985 263.508 213.985ZM263.508 228.982C264.341 228.982 265.016 229.657 265.016 230.49V230.984H265.51C266.343 230.984 267.018 231.659 267.018 232.492C267.018 233.325 266.343 234 265.51 234H264.011C262.9 234 262 233.1 262 231.989V230.49C262 229.657 262.675 228.982 263.508 228.982ZM354.492 228.982C355.325 228.982 356 229.657 356 230.49V231.989C356 233.1 355.1 234 353.989 234H352.49C351.657 234 350.982 233.325 350.982 232.492C350.982 231.659 351.657 230.984 352.49 230.984H352.984V230.49C352.984 229.657 353.659 228.982 354.492 228.982ZM275.999 232.492C275.999 231.659 276.675 230.984 277.507 230.984H286.505C287.338 230.984 288.013 231.659 288.013 232.492C288.013 233.325 287.338 234 286.505 234H277.507C276.675 234 275.999 233.325 275.999 232.492ZM290.996 232.492C290.996 231.659 291.671 230.984 292.504 230.984H295.503C296.336 230.984 297.011 231.659 297.011 232.492C297.011 233.325 296.336 234 295.503 234H292.504C291.671 234 290.996 233.325 290.996 232.492ZM305.992 232.492C305.992 231.659 306.667 230.984 307.5 230.984H316.498C317.331 230.984 318.006 231.659 318.006 232.492C318.006 233.325 317.331 234 316.498 234H307.5C306.667 234 305.992 233.325 305.992 232.492ZM320.989 232.492C320.989 231.659 321.664 230.984 322.497 230.984H325.496C326.329 230.984 327.004 231.659 327.004 232.492C327.004 233.325 326.329 234 325.496 234H322.497C321.664 234 320.989 233.325 320.989 232.492ZM335.985 232.492C335.985 231.659 336.66 230.984 337.493 230.984H346.491C347.324 230.984 347.999 231.659 347.999 232.492C347.999 233.325 347.324 234 346.491 234H337.493C336.66 234 335.985 233.325 335.985 232.492Z" fill="#4D61FC"/>
<path d="M446.171 307.032C440.492 310.527 428.732 312.702 422.672 311.801C408.613 309.71 391.797 302.165 388.84 285.903C387.009 275.834 388.364 264.822 391.042 255" stroke="#180C2E" stroke-width="2" stroke-linecap="round"/>
<path d="M405.622 185.8C404.071 177.603 400.845 168.48 393.784 163.501C384.174 156.724 372.291 156.323 361.023 156.687" stroke="#180C2E" stroke-width="2" stroke-linecap="round"/>
<path fill-rule="evenodd" clip-rule="evenodd" d="M444.369 34.2887C444.575 34.2028 444.786 34.1178 445 34.0338V36.1924C439.389 38.544 434.205 41.8505 429.895 46H427.075C431.885 40.9406 437.875 36.989 444.369 34.2887ZM422.977 51C420.776 54.1397 418.991 57.5986 417.735 61.3533C416.879 63.9105 416.347 66.4472 416.081 68.9618L415.313 69.1962C403.061 72.9368 391.439 76.4853 378.653 74.5116C378.107 74.4274 377.596 74.8016 377.512 75.3474C377.428 75.8932 377.802 76.404 378.348 76.4882C391.585 78.5316 403.691 74.8477 415.917 71.1074C415.47 80.5725 418.605 89.7129 422.234 98.4353C429.703 116.382 439.81 132.654 449.925 148.938C452.601 153.246 455.277 157.554 457.905 161.894C475.236 190.519 489.459 221.235 485.2 252.875C485.126 253.423 485.51 253.926 486.058 254C486.605 254.073 487.109 253.689 487.182 253.142C491.541 220.765 476.971 189.524 459.615 160.859C456.961 156.474 454.267 152.137 451.58 147.811L451.58 147.811L451.58 147.811C441.477 131.545 431.481 115.449 424.081 97.6669C420.365 88.7371 417.332 79.7095 417.956 70.4846C419.888 69.8961 421.825 69.3141 423.772 68.7608C425.159 68.3663 426.816 67.932 428.663 67.448L428.664 67.4478L428.665 67.4477C433.98 66.0547 440.867 64.2495 447.435 61.7954C451.873 60.1374 456.216 58.1664 459.887 55.7941C463.551 53.4262 466.612 50.6173 468.398 47.2571C469.955 44.3263 469.804 41.5956 468.832 39.3279C467.878 37.1021 466.155 35.3607 464.592 34.2509C461.655 32.1654 457.957 31.6214 454.376 31.855C452.899 31.9513 451.423 32.1809 450 32.4999V34.5529C451.465 34.2019 452.99 33.9496 454.506 33.8507C457.838 33.6334 461.013 34.1626 463.434 35.8815C464.792 36.846 466.225 38.3215 466.994 40.1159C467.745 41.8684 467.884 43.9613 466.632 46.3184C465.066 49.2631 462.313 51.8452 458.801 54.1143C455.296 56.3791 451.1 58.2912 446.735 59.9219C440.273 62.3367 433.552 64.0981 428.251 65.4876C426.372 65.9799 424.672 66.4255 423.225 66.837C421.523 67.3208 419.839 67.8217 418.17 68.3267C418.445 66.2248 418.92 64.1122 419.631 61.988C420.977 57.9672 422.966 54.2923 425.451 51H422.977Z" fill="#180C2E"/>
<path fill-rule="evenodd" clip-rule="evenodd" d="M206.235 188.211C206.235 187.659 205.788 187.211 205.235 187.211C204.683 187.211 204.235 187.659 204.235 188.211C204.235 190.267 204.365 192.582 204.5 194.988L204.531 195.541C204.678 198.159 204.82 200.885 204.811 203.577C204.794 208.999 204.159 214.095 201.872 217.76C200.061 220.663 197.102 222.685 193.682 224.087C190.266 225.488 186.469 226.239 183.097 226.646C175.742 227.534 168.257 227.462 160.692 227.317C160.101 227.306 159.509 227.294 158.917 227.282C151.952 227.144 144.923 227.005 137.968 227.577C126.767 228.499 115.455 230.042 104.293 232.335L104.613 234.311C115.712 232.027 126.972 230.489 138.132 229.57C144.981 229.007 151.91 229.144 158.894 229.282C159.48 229.294 160.067 229.306 160.654 229.317C168.213 229.461 175.826 229.538 183.336 228.631C186.802 228.213 190.795 227.433 194.441 225.937C198.083 224.444 201.457 222.203 203.569 218.819C206.171 214.649 206.794 209.063 206.811 203.583C206.82 200.825 206.674 198.045 206.528 195.43L206.498 194.891L206.498 194.89C206.362 192.467 206.235 190.208 206.235 188.211ZM99.5839 235.399L99.2631 233.421C88.7686 235.803 78.4426 238.869 68.5042 242.729C40.4253 253.634 10.697 272.678 1.68811 303.636C-0.198214 310.118 -0.545736 318.328 0.936479 325.988C2.41621 333.635 5.75148 340.887 11.38 345.288C32.8352 362.063 62.3144 358.069 87.2704 350.62C103.946 345.642 121.612 337.086 135.621 326.54C136.062 326.207 136.151 325.58 135.819 325.139C135.487 324.698 134.86 324.61 134.418 324.942C120.617 335.332 103.169 343.787 86.6983 348.703C61.7812 356.141 33.2162 359.823 12.6119 343.712C7.50649 339.72 4.32976 332.996 2.90006 325.608C1.47284 318.232 1.81846 310.346 3.60845 304.195C12.3455 274.171 41.2972 255.441 69.2283 244.593C79.0287 240.787 89.2185 237.757 99.5839 235.399Z" fill="#180C2E"/>
<path fill-rule="evenodd" clip-rule="evenodd" d="M220.939 27.553C225.183 27.2991 228.698 28.9576 231.872 31.5035C234.527 33.6331 236.871 36.3201 239.175 38.96L239.175 38.9604C239.653 39.5085 240.13 40.0545 240.607 40.593C247.079 47.9005 253.046 55.5694 259.046 63.28C260.743 65.4616 262.443 67.6465 264.158 69.8276C270.574 77.9877 278.821 86.5766 287.058 90.8428C291.187 92.9811 295.409 94.0837 299.441 93.4C303.508 92.7104 307.213 90.2333 310.332 85.5547C310.638 85.0952 310.514 84.4743 310.055 84.168C309.595 83.8616 308.974 83.9858 308.668 84.4454C305.787 88.7668 302.521 90.8492 299.107 91.4281C295.659 92.0128 291.89 91.0928 287.978 89.0669C280.135 85.0045 272.104 76.6981 265.73 68.5914C264.03 66.4294 262.34 64.2572 260.649 62.0838L260.647 62.0813C254.641 54.3625 248.623 46.6269 242.104 39.267C241.649 38.7536 241.188 38.2249 240.72 37.6875C238.416 35.0457 235.931 32.1954 233.123 29.9433C229.712 27.2074 225.722 25.2633 220.819 25.5566C215.747 25.8601 211.968 28.0139 209.19 31.2771C206.438 34.5093 204.697 38.7928 203.571 43.3519C203.356 44.2226 203.163 45.107 202.988 46H205.027C205.175 45.2696 205.336 44.5459 205.513 43.8316C206.602 39.4233 208.243 35.4748 210.713 32.5735C213.156 29.7033 216.438 27.8223 220.939 27.553ZM204.22 51H202.206C201.55 56.3657 201.413 61.7117 201.303 66.0065C201.271 67.2371 201.242 68.3815 201.203 69.4152C200.601 85.5052 201.738 101.477 203.299 117.409C203.352 117.959 203.842 118.361 204.391 118.307C204.941 118.253 205.343 117.764 205.289 117.214C203.731 101.309 202.604 85.4438 203.202 69.4901C203.242 68.4181 203.272 67.2449 203.305 65.9937C203.418 61.6223 203.556 56.2976 204.22 51Z" fill="#180C2E"/>
<defs>
<filter id="filter0_d_2172_73083" x="251" y="136" width="124" height="124" filterUnits="userSpaceOnUse" color-interpolation-filters="sRGB">
<feFlood flood-opacity="0" result="BackgroundImageFix"/>
<feColorMatrix in="SourceAlpha" type="matrix" values="0 0 0 0 0 0 0 0 0 0 0 0 0 0 0 0 0 0 127 0" result="hardAlpha"/>
<feOffset dx="4" dy="12"/>
<feGaussianBlur stdDeviation="12.5"/>
<feColorMatrix type="matrix" values="0 0 0 0 0.0541125 0 0 0 0 0.0446875 0 0 0 0 0.1625 0 0 0 0.05 0"/>
<feBlend mode="normal" in2="BackgroundImageFix" result="effect1_dropShadow_2172_73083"/>
<feBlend mode="normal" in="SourceGraphic" in2="effect1_dropShadow_2172_73083" result="shape"/>
</filter>
</defs>
</svg>
