<svg width="374" height="146" viewBox="0 0 374 146" fill="none" xmlns="http://www.w3.org/2000/svg">
<mask id="mask0_4013_101302" style="mask-type:alpha" maskUnits="userSpaceOnUse" x="0" y="0" width="374" height="146">
<rect x="0.5" y="0.5" width="373" height="145" fill="#D9D9D9" stroke="#D5E7BA"/>
</mask>
<g mask="url(#mask0_4013_101302)">
<path d="M236 164.867V36.5332M236 36.5332L269 69.805M236 36.5332L203 69.805M236 164.867C236 169.237 235.146 173.563 233.488 177.6C231.83 181.637 229.399 185.304 226.335 188.394C223.27 191.484 219.632 193.934 215.629 195.606C211.625 197.278 207.334 198.139 203 198.139C198.666 198.139 194.375 197.278 190.371 195.606C186.368 193.934 182.73 191.484 179.665 188.394C176.601 185.304 174.17 181.637 172.512 177.6C170.854 173.563 170 169.237 170 164.867V79.3112M170 79.3112C170 70.487 166.523 62.0242 160.335 55.7845C154.146 49.5448 145.752 46.0394 137 46.0394C128.248 46.0394 119.854 49.5448 113.665 55.7845C107.477 62.0242 104 70.487 104 79.3112V193.386" stroke="#E0EDCD" stroke-width="12" stroke-linecap="round" stroke-linejoin="round"/>
</g>
</svg>
