<svg width="100" height="100" viewBox="0 0 100 100" fill="none" xmlns="http://www.w3.org/2000/svg">
<g clip-path="url(#clip0_6459_112709)">
<path d="M4.09629 3.29736V93.9735H95.9041" stroke="#E3CDD6" stroke-width="6" stroke-linecap="round" stroke-linejoin="round"/>
<path d="M25.5642 93.9737V63.8616" stroke="#E3CDD6" stroke-width="6" stroke-linecap="round" stroke-linejoin="round"/>
<path d="M14.8131 74.6644L25.566 63.8616L36.3189 74.6644" stroke="#E3CDD6" stroke-width="6" stroke-linecap="round" stroke-linejoin="round"/>
<path d="M53.5808 93.9735V35.4395" stroke="#E3CDD6" stroke-width="6" stroke-linecap="round" stroke-linejoin="round"/>
<path d="M42.8322 46.2423L53.5831 35.4395L64.336 46.2423" stroke="#E3CDD6" stroke-width="6" stroke-linecap="round" stroke-linejoin="round"/>
<path d="M81.7218 93.9734V7.01758" stroke="#E3CDD6" stroke-width="6" stroke-linecap="round" stroke-linejoin="round"/>
<path d="M70.9708 17.8184L81.7237 7.01758L92.4766 17.8184" stroke="#E3CDD6" stroke-width="6" stroke-linecap="round" stroke-linejoin="round"/>
</g>
<defs>
<clipPath id="clip0_6459_112709">
<rect width="100" height="99" fill="white" transform="translate(0 0.623291)"/>
</clipPath>
</defs>
</svg>
