<svg width="24" height="24" viewBox="0 0 24 24" fill="none" xmlns="http://www.w3.org/2000/svg">
<path d="M11.5286 1.60067C11.5848 1.52914 11.6564 1.4713 11.7382 1.43153C11.82 1.39176 11.9097 1.37109 12.0006 1.37109C12.0916 1.37109 12.1813 1.39176 12.2631 1.43153C12.3448 1.4713 12.4165 1.52914 12.4726 1.60067L14.2816 3.90067C14.3551 3.99421 14.4546 4.06383 14.5677 4.10069C14.6807 4.13754 14.8022 4.13997 14.9166 4.10767L17.7316 3.30967C17.8191 3.28476 17.911 3.28003 18.0005 3.29584C18.09 3.31166 18.1747 3.3476 18.2483 3.40096C18.3219 3.45431 18.3824 3.52369 18.4252 3.60384C18.4681 3.684 18.4922 3.77284 18.4956 3.86367L18.6056 6.78867C18.6103 6.90749 18.6501 7.02226 18.7201 7.1184C18.79 7.21455 18.887 7.28773 18.9986 7.32867L21.7456 8.33867C21.8309 8.36995 21.908 8.42019 21.971 8.48559C22.0341 8.551 22.0814 8.62986 22.1095 8.71624C22.1377 8.80261 22.1458 8.89424 22.1333 8.98422C22.1209 9.0742 22.0882 9.16018 22.0376 9.23567L20.4076 11.6667C20.3414 11.7655 20.3061 11.8817 20.3061 12.0007C20.3061 12.1196 20.3414 12.2359 20.4076 12.3347L22.0376 14.7657C22.0882 14.8412 22.1209 14.9271 22.1333 15.0171C22.1458 15.1071 22.1377 15.1987 22.1095 15.2851C22.0814 15.3715 22.0341 15.4503 21.971 15.5157C21.908 15.5811 21.8309 15.6314 21.7456 15.6627L18.9986 16.6727C18.8872 16.7138 18.7904 16.787 18.7207 16.8831C18.6509 16.9793 18.6112 17.094 18.6066 17.2127L18.4956 20.1377C18.4922 20.2285 18.4681 20.3173 18.4252 20.3975C18.3824 20.4776 18.3219 20.547 18.2483 20.6004C18.1747 20.6537 18.09 20.6897 18.0005 20.7055C17.911 20.7213 17.8191 20.7166 17.7316 20.6917L14.9166 19.8937C14.8022 19.861 14.6805 19.8632 14.5673 19.8999C14.454 19.9366 14.3543 20.0061 14.2806 20.0997L12.4736 22.4007C12.4175 22.4722 12.3458 22.53 12.2641 22.5698C12.1823 22.6096 12.0926 22.6302 12.0016 22.6302C11.9107 22.6302 11.821 22.6096 11.7392 22.5698C11.6574 22.53 11.5858 22.4722 11.5296 22.4007L9.72064 20.1007C9.64723 20.0071 9.54767 19.9375 9.43461 19.9006C9.32155 19.8638 9.20009 19.8614 9.08564 19.8937L6.27064 20.6917C6.18323 20.7166 6.09131 20.7213 6.0018 20.7055C5.9123 20.6897 5.82756 20.6537 5.75398 20.6004C5.6804 20.547 5.6199 20.4776 5.57705 20.3975C5.53421 20.3173 5.51013 20.2285 5.50664 20.1377L5.39664 17.2127C5.39202 17.0938 5.35219 16.9791 5.28222 16.8829C5.21225 16.7868 5.11529 16.7136 5.00364 16.6727L2.25664 15.6627C2.17136 15.6314 2.0943 15.5811 2.03127 15.5157C1.96823 15.4503 1.92087 15.3715 1.89275 15.2851C1.86463 15.1987 1.85649 15.1071 1.86895 15.0171C1.8814 14.9271 1.91412 14.8412 1.96464 14.7657L3.59464 12.3347C3.66085 12.2359 3.6962 12.1196 3.6962 12.0007C3.6962 11.8817 3.66085 11.7655 3.59464 11.6667L1.96464 9.23567C1.91412 9.16018 1.8814 9.0742 1.86895 8.98422C1.85649 8.89424 1.86463 8.80261 1.89275 8.71624C1.92087 8.62986 1.96823 8.551 2.03127 8.48559C2.0943 8.42019 2.17136 8.36995 2.25664 8.33867L5.00364 7.32867C5.1151 7.28757 5.21185 7.21432 5.28163 7.11819C5.35142 7.02205 5.3911 6.90737 5.39564 6.78867L5.50664 3.86367C5.51013 3.77284 5.53421 3.684 5.57705 3.60384C5.6199 3.52369 5.6804 3.45431 5.75398 3.40096C5.82756 3.3476 5.9123 3.31166 6.0018 3.29584C6.09131 3.28003 6.18323 3.28476 6.27064 3.30967L9.08564 4.10767C9.20009 4.13997 9.32155 4.13754 9.43461 4.10069C9.54767 4.06383 9.64723 3.99421 9.72064 3.90067L11.5306 1.60067H11.5286Z" fill="#4D61FC" stroke="#4D61FC" stroke-width="1.5"/>
<path d="M9 12L11 14L15 10" stroke="white" stroke-width="1.5" stroke-linecap="round" stroke-linejoin="round"/>
</svg>
