<svg width="24" height="24" viewBox="0 0 24 24" fill="none" xmlns="http://www.w3.org/2000/svg">
<path fill-rule="evenodd" clip-rule="evenodd" d="M15.7072 11.2929C16.0977 11.6834 16.0977 12.3166 15.7072 12.7071L10.0503 18.364C9.65982 18.7545 9.02666 18.7545 8.63613 18.364C8.24561 17.9734 8.24561 17.3403 8.63613 16.9497L13.5859 12L8.63613 7.05025C8.24561 6.65973 8.24561 6.02656 8.63613 5.63604C9.02666 5.24551 9.65982 5.24551 10.0503 5.63604L15.7072 11.2929Z" fill="#8B8596"/>
</svg>
