<svg width="20" height="21" viewBox="0 0 20 21" fill="none" xmlns="http://www.w3.org/2000/svg">
<path d="M10 9.66602H12.0833H14.1667" fill="#180C2E"/>
<path d="M10 9.66602H12.0833H14.1667" stroke="#180C2E" stroke-width="1.5" stroke-linecap="round" stroke-linejoin="round"/>
<path d="M10 6.33398H12.0833H14.1667" stroke="#180C2E" stroke-width="1.5" stroke-linecap="round" stroke-linejoin="round"/>
<path d="M6.66797 13V3.5C6.66797 3.22386 6.89183 3 7.16797 3H17.0013C17.2775 3 17.5013 3.22386 17.5013 3.5V14.6667C17.5013 16.5076 16.0089 18 14.168 18" stroke="#180C2E" stroke-width="1.5" stroke-linecap="round" stroke-linejoin="round"/>
<path d="M4.16667 13H6.66667H10.3333C10.6095 13 10.8359 13.2223 10.8582 13.4976C10.9605 14.7623 11.4843 18 14.1667 18H6.66667H5C3.61929 18 2.5 16.8807 2.5 15.5V14.6667C2.5 13.7462 3.24619 13 4.16667 13Z" stroke="#180C2E" stroke-width="1.5" stroke-linecap="round" stroke-linejoin="round"/>
</svg>
