<svg width="20" height="20" viewBox="0 0 20 20" fill="none" xmlns="http://www.w3.org/2000/svg">
<path d="M10 9.16602H12.0833H14.1667" fill="white"/>
<path d="M10 9.16602H12.0833H14.1667" stroke="white" stroke-width="1.5" stroke-linecap="round" stroke-linejoin="round"/>
<path d="M10 5.83398H12.0833H14.1667" stroke="white" stroke-width="1.5" stroke-linecap="round" stroke-linejoin="round"/>
<path d="M6.66797 12.5V3C6.66797 2.72386 6.89183 2.5 7.16797 2.5H17.0013C17.2775 2.5 17.5013 2.72386 17.5013 3V14.1667C17.5013 16.0076 16.0089 17.5 14.168 17.5" stroke="white" stroke-width="1.5" stroke-linecap="round" stroke-linejoin="round"/>
<path d="M4.16667 12.5H6.66667H10.3333C10.6095 12.5 10.8359 12.7223 10.8582 12.9976C10.9605 14.2623 11.4843 17.5 14.1667 17.5H6.66667H5C3.61929 17.5 2.5 16.3807 2.5 15V14.1667C2.5 13.2462 3.24619 12.5 4.16667 12.5Z" stroke="white" stroke-width="1.5" stroke-linecap="round" stroke-linejoin="round"/>
</svg>
