<svg width="16" height="17" viewBox="0 0 16 17" fill="none" xmlns="http://www.w3.org/2000/svg">
<path d="M1 8.83398L3.71716 11.5511C3.87337 11.7074 4.12663 11.7074 4.28284 11.5511L6 9.83398" stroke="#4D61FC" stroke-width="1.5" stroke-linecap="round"/>
<path d="M10.6667 5.16602L8 7.83268" stroke="#4D61FC" stroke-width="1.5" stroke-linecap="round"/>
<path d="M4.66602 8.49935L7.71648 11.5498C7.87275 11.7061 8.12595 11.7061 8.28222 11.5498L14.666 5.16602" stroke="#4D61FC" stroke-width="1.5" stroke-linecap="round"/>
</svg>
