<svg width="40" height="40" viewBox="0 0 40 40" fill="none" xmlns="http://www.w3.org/2000/svg">
<path d="M11.6667 30H17.5001H23.3334" stroke="#A8B3E0" stroke-width="2" stroke-linecap="round" stroke-linejoin="round"/>
<path d="M11.6667 23.3334H12.5001H13.3334" stroke="#A8B3E0" stroke-width="2" stroke-linecap="round" stroke-linejoin="round"/>
<path d="M11.6667 16.6666H14.1667H16.6667" stroke="#A8B3E0" stroke-width="2" stroke-linecap="round" stroke-linejoin="round"/>
<path d="M11.6667 3.33337H27.5001L35.0001 10.8334V31.6667" stroke="#A8B3E0" stroke-width="2" stroke-linecap="round" stroke-linejoin="round"/>
<path d="M5 34.1667V10.8334C5 9.45266 6.11928 8.33337 7.5 8.33337H23.7525C24.0177 8.33337 24.272 8.43872 24.4595 8.62627L29.7072 13.8738C29.8947 14.0614 30 14.3157 30 14.5809V34.1667C30 35.5474 28.8807 36.6667 27.5 36.6667H7.5C6.11928 36.6667 5 35.5474 5 34.1667Z" stroke="#A8B3E0" stroke-width="2" stroke-linecap="round" stroke-linejoin="round"/>
<path d="M23.3333 14V8.92262C23.3333 8.59719 23.5971 8.33337 23.9226 8.33337C24.0788 8.33337 24.2286 8.39546 24.3393 8.50596L29.8273 13.9941C29.9379 14.1046 29.9999 14.2545 29.9999 14.4108C29.9999 14.7362 29.7361 15 29.4106 15H24.3333C23.7809 15 23.3333 14.5523 23.3333 14Z" fill="#A8B3E0" stroke="#A8B3E0" stroke-width="2" stroke-linecap="round" stroke-linejoin="round"/>
</svg>
