<svg width="374" height="212" viewBox="0 0 374 212" fill="none" xmlns="http://www.w3.org/2000/svg">
<g clip-path="url(#clip0_568_1784)">
<rect x="212" y="212" width="1.00002" height="212" transform="rotate(-180 212 212)" fill="#CFE8E5"/>
<rect x="162.5" y="46.5" width="1.00001" height="48" transform="rotate(-90 162.5 46.5)" fill="#CFE8E5"/>
<rect x="163" y="95" width="1.00001" height="48" transform="rotate(-90 163 95)" fill="#CFE8E5"/>
<rect x="1" y="193" width="1.00002" height="373" transform="rotate(-90 1 193)" fill="#CFE8E5"/>
<rect x="1" y="144" width="1.00002" height="373" transform="rotate(-90 1 144)" fill="#CFE8E5"/>
<rect x="163" y="46" width="1.00001" height="48" transform="rotate(-90 163 46)" fill="#CFE8E5"/>
<rect x="163" y="212" width="1.00002" height="212" transform="rotate(-180 163 212)" fill="#CFE8E5"/>
<rect x="163" y="46" width="48" height="48" fill="#ACD7D2"/>
<rect x="114" y="193" width="1" height="50" transform="rotate(-180 114 193)" fill="#D2E5E9"/>
<rect x="65" y="193" width="1" height="50" transform="rotate(-180 65 193)" fill="#D2E5E9"/>
<rect x="16" y="193" width="1" height="50" transform="rotate(-180 16 193)" fill="#D2E5E9"/>
<rect x="261" y="193" width="1" height="50" transform="rotate(-180 261 193)" fill="#D2E5E9"/>
<rect x="310" y="193" width="1" height="50" transform="rotate(-180 310 193)" fill="#D2E5E9"/>
<rect x="359" y="193" width="1" height="50" transform="rotate(-180 359 193)" fill="#D2E5E9"/>
<g clip-path="url(#clip1_568_1784)">
<path d="M181.165 62.9168H192.832M179.916 64.1652V75.8327M194.081 64.166V75.8343M181.165 77.0835H192.832M181.164 61.666H178.666V64.1643H181.164V61.666ZM181.164 75.8327H178.666V78.331H181.164V75.8327ZM195.33 61.6677H192.833V64.166H195.331V61.6677H195.33ZM195.33 75.8343H192.833V78.3327H195.331V75.8343H195.33Z" stroke="#180C2E" stroke-width="1.5" stroke-miterlimit="1.5" stroke-linecap="round" stroke-linejoin="round"/>
<path d="M186.164 72.5013L183.664 66.668L189.497 69.168L186.999 70.0005L186.164 72.5013V72.5013Z" stroke="#180C2E" stroke-width="1.5" stroke-miterlimit="1.5" stroke-linecap="round" stroke-linejoin="round"/>
<path d="M187 70.002L189.498 72.502L187 70.002V70.002Z" stroke="#180C2E" stroke-width="1.5" stroke-miterlimit="1.5" stroke-linecap="round" stroke-linejoin="round"/>
</g>
</g>
<defs>
<clipPath id="clip0_568_1784">
<rect width="374" height="212" fill="white"/>
</clipPath>
<clipPath id="clip1_568_1784">
<rect width="20" height="20" fill="white" transform="translate(177 60)"/>
</clipPath>
</defs>
</svg>
