<svg width="44" height="44" viewBox="0 0 44 44" fill="none" xmlns="http://www.w3.org/2000/svg">
<path d="M22.0146 25.322V35.0698" stroke="white" stroke-width="1.5" stroke-miterlimit="10"/>
<path d="M22.0148 42.9124C24.2058 42.9124 25.9819 41.1567 25.9819 38.991C25.9819 36.8253 24.2058 35.0696 22.0148 35.0696C19.8238 35.0696 18.0477 36.8253 18.0477 38.991C18.0477 41.1567 19.8238 42.9124 22.0148 42.9124Z" stroke="white" stroke-width="1.5" stroke-miterlimit="10"/>
<path d="M6.53342 42.9124C8.72441 42.9124 10.5006 41.1567 10.5006 38.991C10.5006 36.8253 8.72441 35.0696 6.53342 35.0696C4.34242 35.0696 2.56627 36.8253 2.56627 38.991C2.56627 41.1567 4.34242 42.9124 6.53342 42.9124Z" stroke="white" stroke-width="1.5" stroke-miterlimit="10"/>
<path d="M37.4962 42.9124C39.6872 42.9124 41.4633 41.1567 41.4633 38.991C41.4633 36.8253 39.6872 35.0696 37.4962 35.0696C35.3052 35.0696 33.529 36.8253 33.529 38.991C33.529 41.1567 35.3052 42.9124 37.4962 42.9124Z" stroke="white" stroke-width="1.5" stroke-miterlimit="10"/>
<path d="M6.53319 35.5365V32.5857C6.53319 31.5318 7.4944 30.6782 8.68114 30.6782H35.348C36.5347 30.6782 37.4959 31.5318 37.4959 32.5857V35.5365" stroke="white" stroke-width="1.5" stroke-miterlimit="10"/>
<path d="M8.44679 25.3649C12.0862 25.5861 33.3875 25.4907 35.8401 25.3649C38.5331 25.2266 43.0274 24.0516 43.0274 18.0125C43.0274 11.0951 35.6694 11.1943 35.6694 11.1943C35.6694 11.1943 37.4167 3.41656 30.4533 1.36699C23.9222 -0.555742 20.3802 4.66882 20.1496 6.25964C20.1496 6.25964 17.7519 4.44183 14.3353 5.22103C10.9188 6.00023 10.2627 9.63682 10.2627 9.63682C10.2627 9.63682 1 8.63063 1 17.7541C1 21.5671 4.43876 25.1226 8.44583 25.3658L8.44679 25.3649Z" stroke="white" stroke-width="1.5" stroke-miterlimit="10"/>
</svg>
