<svg width="56" height="56" viewBox="0 0 56 56" fill="none" xmlns="http://www.w3.org/2000/svg">
<path d="M7 49H28H49" stroke="#180C2E" stroke-width="2.5" stroke-linecap="round" stroke-linejoin="round"/>
<path d="M28.5174 13.5997L40.0669 25.149M28.5174 13.5997L35.1172 7L46.6665 18.5494L40.0669 25.149L28.5174 13.5997ZM28.5174 13.5997L15.4354 26.6818C14.9978 27.1193 14.752 27.7129 14.752 28.3317V38.9145H25.3349C25.9537 38.9145 26.5471 38.6688 26.9848 38.2311L40.0669 25.149L28.5174 13.5997Z" stroke="#180C2E" stroke-width="2.5" stroke-linecap="round" stroke-linejoin="round"/>
</svg>
