<svg width="40" height="40" viewBox="0 0 40 40" fill="none" xmlns="http://www.w3.org/2000/svg">
<path d="M8.33159 5.83504H31.6649M5.83325 8.33171V31.6667M34.1633 8.33337V31.67M8.33159 34.1684H31.6649M8.32992 3.33337H3.33325V8.33004H8.32992V3.33337ZM8.32992 31.6667H3.33325V36.6634H8.32992V31.6667ZM36.6616 3.33671H31.6666V8.33337H36.6633V3.33671H36.6616ZM36.6616 31.67H31.6666V36.6667H36.6633V31.67H36.6616Z" stroke="#F8CA98" stroke-width="2" stroke-miterlimit="1.5" stroke-linecap="round" stroke-linejoin="round"/>
<path d="M18.3284 25.0033L13.3284 13.3367L24.995 18.3367L19.9984 20.0017L18.3284 25.0033V25.0033Z" stroke="#F8CA98" stroke-width="2" stroke-miterlimit="1.5" stroke-linecap="round" stroke-linejoin="round"/>
<path d="M19.9983 20.0033L24.995 25.0033L19.9983 20.0033V20.0033Z" stroke="#F8CA98" stroke-width="2" stroke-miterlimit="1.5" stroke-linecap="round" stroke-linejoin="round"/>
</svg>
