<svg width="49" height="48" viewBox="0 0 49 48" fill="none" xmlns="http://www.w3.org/2000/svg">
<g clip-path="url(#clip0_694_1218)">
<g filter="url(#filter0_d_694_1218)">
<rect x="0.5" width="48" height="48" fill="#C9E0A8"/>
<path d="M17 31V17C17 16.8674 17.0527 16.7402 17.1464 16.6464C17.2402 16.5527 17.3674 16.5 17.5 16.5H31.5C31.6326 16.5 31.7598 16.5527 31.8536 16.6464C31.9473 16.7402 32 16.8674 32 17V31C32 31.1326 31.9473 31.2598 31.8536 31.3536C31.7598 31.4473 31.6326 31.5 31.5 31.5H17.5C17.3674 31.5 17.2402 31.4473 17.1464 31.3536C17.0527 31.2598 17 31.1326 17 31V31Z" stroke="#180C2E" stroke-width="1.5"/>
<path d="M27 21.084C26.4292 20.5132 25.4242 20.1165 24.5 20.0915M22 26.5007C22.5367 27.2173 23.5358 27.6257 24.5 27.6598M24.5 20.0915C23.4 20.0615 22.4167 20.559 22.4167 21.9173C22.4167 24.4173 27 23.1673 27 25.6673C27 27.0932 25.78 27.7057 24.5 27.6598M24.5 20.0915V18.584M24.5 27.6598V29.4173" stroke="#180C2E" stroke-width="1.5" stroke-linecap="round" stroke-linejoin="round"/>
</g>
</g>
<defs>
<filter id="filter0_d_694_1218" x="-35.5" y="-28" width="128" height="128" filterUnits="userSpaceOnUse" color-interpolation-filters="sRGB">
<feFlood flood-opacity="0" result="BackgroundImageFix"/>
<feColorMatrix in="SourceAlpha" type="matrix" values="0 0 0 0 0 0 0 0 0 0 0 0 0 0 0 0 0 0 127 0" result="hardAlpha"/>
<feOffset dx="4" dy="12"/>
<feGaussianBlur stdDeviation="20"/>
<feColorMatrix type="matrix" values="0 0 0 0 0.0541125 0 0 0 0 0.0446875 0 0 0 0 0.1625 0 0 0 0.11 0"/>
<feBlend mode="normal" in2="BackgroundImageFix" result="effect1_dropShadow_694_1218"/>
<feBlend mode="normal" in="SourceGraphic" in2="effect1_dropShadow_694_1218" result="shape"/>
</filter>
<clipPath id="clip0_694_1218">
<rect width="48" height="48" fill="white" transform="translate(0.5)"/>
</clipPath>
</defs>
</svg>
