<svg width="40" height="40" viewBox="0 0 40 40" fill="none" xmlns="http://www.w3.org/2000/svg">
<path d="M19.2134 2.66668C19.307 2.54746 19.4264 2.45107 19.5627 2.38479C19.699 2.3185 19.8485 2.28406 20.0001 2.28406C20.1516 2.28406 20.3012 2.3185 20.4375 2.38479C20.5738 2.45107 20.6932 2.54746 20.7868 2.66668L23.8018 6.50001C23.9241 6.65592 24.0901 6.77196 24.2785 6.83338C24.4669 6.89481 24.6694 6.89886 24.8601 6.84501L29.5518 5.51501C29.6974 5.4735 29.8507 5.46562 29.9998 5.49198C30.149 5.51833 30.2902 5.57824 30.4129 5.66716C30.5355 5.75609 30.6363 5.87171 30.7077 6.00531C30.7792 6.1389 30.8193 6.28698 30.8251 6.43835L31.0084 11.3133C31.0161 11.5114 31.0825 11.7027 31.1991 11.8629C31.3158 12.0231 31.4774 12.1451 31.6634 12.2133L36.2418 13.8967C36.3839 13.9488 36.5123 14.0326 36.6174 14.1416C36.7224 14.2506 36.8014 14.382 36.8482 14.526C36.8951 14.6699 36.9087 14.8226 36.8879 14.9726C36.8672 15.1226 36.8126 15.2659 36.7284 15.3917L34.0118 19.4433C33.9014 19.608 33.8425 19.8018 33.8425 20C33.8425 20.1982 33.9014 20.392 34.0118 20.5567L36.7284 24.6083C36.8126 24.7342 36.8672 24.8775 36.8879 25.0274C36.9087 25.1774 36.8951 25.3301 36.8482 25.4741C36.8014 25.618 36.7224 25.7495 36.6174 25.8585C36.5123 25.9675 36.3839 26.0512 36.2418 26.1033L31.6634 27.7867C31.4777 27.8552 31.3164 27.9773 31.2001 28.1375C31.0838 28.2977 31.0177 28.4888 31.0101 28.6867L30.8251 33.5617C30.8193 33.713 30.7792 33.8611 30.7077 33.9947C30.6363 34.1283 30.5355 34.2439 30.4129 34.3329C30.2902 34.4218 30.149 34.4817 29.9998 34.5081C29.8507 34.5344 29.6974 34.5265 29.5518 34.485L24.8601 33.155C24.6693 33.1006 24.4666 33.1042 24.2778 33.1654C24.0891 33.2265 23.9228 33.3424 23.8001 33.4983L20.7884 37.3333C20.6949 37.4526 20.5754 37.549 20.4392 37.6152C20.3029 37.6815 20.1533 37.716 20.0018 37.716C19.8502 37.716 19.7007 37.6815 19.5644 37.6152C19.4281 37.549 19.3087 37.4526 19.2151 37.3333L16.2001 33.5C16.0777 33.3441 15.9118 33.2281 15.7234 33.1666C15.5349 33.1052 15.3325 33.1012 15.1418 33.155L10.4501 34.485C10.3044 34.5265 10.1512 34.5344 10.002 34.5081C9.85286 34.4817 9.71162 34.4218 9.58899 34.3329C9.46635 34.2439 9.36552 34.1283 9.29411 33.9947C9.2227 33.8611 9.18257 33.713 9.17676 33.5617L8.99343 28.6867C8.98572 28.4886 8.91935 28.2974 8.80273 28.1371C8.6861 27.9769 8.5245 27.8549 8.33843 27.7867L3.76009 26.1033C3.61796 26.0512 3.48952 25.9675 3.38447 25.8585C3.27941 25.7495 3.20047 25.618 3.15361 25.4741C3.10674 25.3301 3.09318 25.1774 3.11394 25.0274C3.13469 24.8775 3.18923 24.7342 3.27343 24.6083L5.99009 20.5567C6.10044 20.392 6.15936 20.1982 6.15936 20C6.15936 19.8018 6.10044 19.608 5.99009 19.4433L3.27343 15.3917C3.18923 15.2659 3.13469 15.1226 3.11394 14.9726C3.09318 14.8226 3.10674 14.6699 3.15361 14.526C3.20047 14.382 3.27941 14.2506 3.38447 14.1416C3.48952 14.0326 3.61796 13.9488 3.76009 13.8967L8.33843 12.2133C8.52419 12.1449 8.68544 12.0228 8.80175 11.8625C8.91806 11.7023 8.98419 11.5112 8.99176 11.3133L9.17676 6.43835C9.18257 6.28698 9.2227 6.1389 9.29411 6.00531C9.36552 5.87171 9.46635 5.75609 9.58899 5.66716C9.71162 5.57824 9.85286 5.51833 10.002 5.49198C10.1512 5.46562 10.3044 5.4735 10.4501 5.51501L15.1418 6.84501C15.3325 6.89886 15.5349 6.89481 15.7234 6.83338C15.9118 6.77196 16.0777 6.65592 16.2001 6.50001L19.2168 2.66668H19.2134Z" stroke="#E0CFA8" stroke-width="2"/>
<path d="M15 20L18.3333 23.3333L25 16.6666" stroke="#E0CFA8" stroke-width="2" stroke-linecap="round" stroke-linejoin="round"/>
</svg>
